[gd_scene load_steps=2 format=3 uid="uid://bidvdg6lln2gy"]

[ext_resource type="Script" path="res://game_over.gd" id="1_s1bn3"]

[node name="Game Over" type="Node"]
script = ExtResource("1_s1bn3")

[node name="RichTextLabel" type="Label" parent="."]
anchors_preset = 15
anchor_right = 1.0
anchor_bottom = 1.0
grow_horizontal = 2
grow_vertical = 2
size_flags_horizontal = 4
theme_override_font_sizes/font_size = 50
text = "GAME OVER"
horizontal_alignment = 1
vertical_alignment = 1
