[gd_scene load_steps=9 format=3 uid="uid://cdlxnbllgb8la"]

[ext_resource type="Script" path="res://player.gd" id="1_so18n"]
[ext_resource type="AudioStream" uid="uid://cckl1pu4gno5u" path="res://sounds/hitHurt.wav" id="3_thibb"]
[ext_resource type="SpriteFrames" uid="uid://on58yyj4qneu" path="res://player.tres" id="5_ww28f"]

[sub_resource type="CapsuleShape3D" id="CapsuleShape3D_jo701"]
radius = 0.316978
height = 0.634008

[sub_resource type="Animation" id="Animation_3gkj4"]
resource_name = "HIT_FLASH"
length = 0.4

[sub_resource type="Animation" id="Animation_k2hu6"]
length = 0.001
tracks/0/type = "value"
tracks/0/imported = false
tracks/0/enabled = true
tracks/0/path = NodePath("joe:animation")
tracks/0/interp = 1
tracks/0/loop_wrap = true
tracks/0/keys = {
"times": PackedFloat32Array(0),
"transitions": PackedFloat32Array(1),
"update": 1,
"values": [&"SLASH_DOWN"]
}

[sub_resource type="Animation" id="Animation_dqday"]
resource_name = "dance"
length = 5.0
tracks/0/type = "value"
tracks/0/imported = false
tracks/0/enabled = true
tracks/0/path = NodePath("joe:animation")
tracks/0/interp = 1
tracks/0/loop_wrap = true
tracks/0/keys = {
"times": PackedFloat32Array(0, 1, 2, 3, 4),
"transitions": PackedFloat32Array(1, 1, 1, 1, 1),
"update": 1,
"values": [&"SLASH_DOWN", &"SLASH_LEFT", &"SHOOT_RIGHT", &"CAST_DOWN", &"THRUST_DOWN"]
}

[sub_resource type="AnimationLibrary" id="AnimationLibrary_utlx6"]
_data = {
"HIT_FLASH": SubResource("Animation_3gkj4"),
"RESET": SubResource("Animation_k2hu6"),
"dance": SubResource("Animation_dqday")
}

[node name="Player" type="CharacterBody3D" groups=["Player"]]
script = ExtResource("1_so18n")
metadata/is_player = true

[node name="CollisionShape3D" type="CollisionShape3D" parent="."]
shape = SubResource("CapsuleShape3D_jo701")

[node name="AudioStreamPlayer2D" type="AudioStreamPlayer2D" parent="."]
stream = ExtResource("3_thibb")
volume_db = -9.947

[node name="joe" type="AnimatedSprite3D" parent="."]
billboard = 1
no_depth_test = true
texture_filter = 0
sprite_frames = ExtResource("5_ww28f")
animation = &"SLASH_DOWN"

[node name="AnimationPlayer" type="AnimationPlayer" parent="."]
libraries = {
"": SubResource("AnimationLibrary_utlx6")
}

[connection signal="animation_finished" from="joe" to="." method="_on_joe_animation_finished"]
